# Blender v2.73 (sub 0) OBJ File: ''
# www.blender.org
o car_inside_car_inside.001
v 2.938191 3.034129 0.475323
v 2.938190 -6.326646 0.475323
v 3.938472 3.176583 3.499970
v 3.947757 -0.799134 3.503433
v 3.947757 -3.103963 3.503433
v 3.936615 -6.379704 3.499278
v -4.061102 3.034130 0.475323
v -4.061104 -6.326645 0.475323
v -4.962864 3.176503 3.498239
v -4.966427 -0.799133 3.503432
v -4.966427 -3.103962 3.503432
v -4.962195 -6.379683 3.498238
v 2.938191 3.034129 0.475323
v 2.938191 3.034129 0.475323
v -4.061102 3.034130 0.475323
v -4.061102 3.034130 0.475323
v 2.938191 3.034129 0.475323
v -4.061102 3.034130 0.475323
v -4.061104 -6.326645 0.475323
v -4.061104 -6.326645 0.475323
v 2.938190 -6.326646 0.475323
v 2.938191 3.034129 0.475323
v -4.962864 3.176503 3.498239
v -4.061102 3.034130 0.475323
v 3.938472 3.176583 3.499970
v -4.962864 3.176503 3.498239
v -4.962195 -6.379683 3.498238
v 3.936615 -6.379704 3.499278
v 2.938190 -6.326646 0.475323
v 2.938190 -6.326646 0.475323
v -4.061104 -6.326645 0.475323
v -4.962195 -6.379683 3.498238
vn -0.949400 -0.001900 0.314100
vn -0.948700 0.000000 0.316300
vn -0.949600 0.002800 0.313600
vn 0.958300 -0.000500 0.285900
vn 0.958100 0.000000 0.286400
vn 0.958300 0.000800 0.285700
vn -0.000000 0.000000 1.000000
vn -0.000000 -0.998900 0.047000
vn 0.000000 0.999800 0.017500
s off
f 1//1 4//1 3//1
f 13//2 2//2 5//2
f 5//2 4//2 14//2
f 2//3 6//3 5//3
f 10//4 7//4 9//4
f 15//5 10//5 11//5
f 11//5 8//5 16//5
f 12//6 8//6 11//6
f 17//7 18//7 19//7
f 20//7 21//7 22//7
f 1//8 23//8 24//8
f 1//8 25//8 26//8
f 27//9 28//9 29//9
f 30//9 31//9 32//9
o Box01_Box01.001
v 2.309096 3.117508 2.066517
v 2.169855 2.352576 2.702857
v 2.074885 3.156364 3.300738
v 1.961934 2.508524 3.516301
v 1.056764 3.117509 2.066517
v 1.196004 2.352577 2.702857
v 1.290974 3.156364 3.300738
v 1.403925 2.508524 3.516300
v 2.309096 3.117508 2.066517
v 2.169855 2.352576 2.702857
v 1.196004 2.352577 2.702857
v 1.196004 2.352577 2.702857
v 1.056764 3.117509 2.066517
v 2.309096 3.117508 2.066517
v 1.961934 2.508524 3.516301
v 1.196004 2.352577 2.702857
v 1.961934 2.508524 3.516301
v 2.074885 3.156364 3.300738
v 1.290974 3.156364 3.300738
v 1.290974 3.156364 3.300738
v 1.403925 2.508524 3.516300
v 1.961934 2.508524 3.516301
vn 0.976200 -0.107400 0.188600
vn 0.969700 0.025600 0.243000
vn -0.969700 0.025600 0.243000
vn -0.976200 -0.107400 0.188600
vn 0.000000 -0.639500 -0.768800
vn -0.000000 -0.982100 0.188300
vn 0.000000 0.315700 0.948900
s off
f 33//10 35//10 36//10
f 33//11 36//11 34//11
f 37//12 38//12 40//12
f 40//13 39//13 37//13
f 41//14 42//14 43//14
f 44//14 45//14 46//14
f 34//15 47//15 40//15
f 40//15 48//15 34//15
f 49//16 50//16 51//16
f 52//16 53//16 54//16
o Cylinder05_Cylinder05.001
v 1.670134 2.225050 3.136474
v 0.665085 2.506504 3.432812
v 1.059263 2.547076 3.972508
v 1.686773 2.464645 4.192868
v 2.307927 2.290697 4.009720
v 2.685466 2.091674 3.493023
v 2.675182 1.943596 2.840136
v 2.281004 1.903023 2.300441
v 1.653495 1.985455 2.080081
v 1.032340 2.159403 2.263228
v 0.654802 2.358426 2.779926
v 0.704825 2.693794 3.389708
v 1.099003 2.734365 3.929404
v 1.726513 2.651934 4.149764
v 2.347667 2.477986 3.966616
v 2.725205 2.278964 3.449919
v 2.714921 2.130886 2.797032
v 2.320743 2.090313 2.257337
v 1.693234 2.172744 2.036977
v 1.072080 2.346693 2.220124
v 0.694541 2.545716 2.736821
v 1.709873 2.412340 3.093370
v 1.032340 2.159403 2.263228
v 1.072080 2.346693 2.220124
vn -0.202500 -0.954300 0.219600
vn -0.782600 0.292500 0.549600
vn -0.286800 0.272200 0.918500
vn 0.317600 0.148200 0.936600
vn 0.801000 -0.032400 0.597800
vn 0.979200 -0.200800 0.030100
vn 0.782600 -0.292500 -0.549600
vn -0.979200 0.200800 -0.030100
vn 0.202500 0.954300 -0.219600
s off
f 55//17 57//17 56//17
f 55//17 58//17 57//17
f 55//17 59//17 58//17
f 55//17 60//17 59//17
f 55//17 61//17 60//17
f 55//17 62//17 61//17
f 55//17 63//17 62//17
f 55//17 64//17 63//17
f 55//17 65//17 77//17
f 55//17 56//17 65//17
f 56//18 67//18 66//18
f 56//18 57//18 67//18
f 57//19 68//19 67//19
f 57//19 58//19 68//19
f 58//20 69//20 68//20
f 58//20 59//20 69//20
f 59//21 70//21 69//21
f 59//21 60//21 70//21
f 60//22 71//22 70//22
f 60//22 61//22 71//22
f 61//23 72//23 71//23
f 61//23 62//23 72//23
f 65//24 66//24 75//24
f 65//24 56//24 66//24
f 76//25 66//25 67//25
f 76//25 67//25 68//25
f 76//25 68//25 69//25
f 76//25 69//25 70//25
f 76//25 70//25 71//25
f 76//25 71//25 72//25
f 76//25 72//25 73//25
f 76//25 73//25 74//25
f 76//25 78//25 75//25
f 76//25 75//25 66//25
o L-Ext02.L-Ext03.L-Ext04.L-Ext05_L-Ext02.001
v -4.537343 2.847432 0.563079
v -4.537344 -0.998548 0.563080
v -4.537345 -1.333840 4.947431
v -4.537344 2.847432 1.643236
v -4.537344 0.497724 1.756660
v -4.537345 -0.176875 5.027953
v -4.537343 2.847432 0.563079
v -4.537344 -0.998548 0.563080
v -4.537345 -1.333840 4.947431
v -4.537345 -0.176875 5.027953
v -4.537344 0.497724 1.756660
v -4.537344 2.847432 1.643236
v -1.140734 2.847431 0.563080
v -1.140735 -0.998549 0.563080
v -1.140736 -1.333841 4.947431
v -1.140736 -0.176876 5.027953
v -1.140735 0.497723 1.756660
v -1.140735 2.847431 1.643237
v -1.140734 2.847431 0.563080
v -1.140735 -0.998549 0.563080
v -1.140736 -1.333841 4.947431
v -1.140735 2.847431 1.643237
v -1.140735 0.497723 1.756660
v -1.140736 -0.176876 5.027953
vn -1.000000 0.000000 -0.000000
vn -0.000000 -0.997100 -0.076300
vn 0.000000 -0.069400 0.997600
vn 0.000000 0.979400 0.202000
vn -0.000000 0.048200 0.998800
vn 0.000000 1.000000 -0.000000
vn 1.000000 -0.000000 0.000000
s off
f 82//26 79//26 80//26
f 82//26 80//26 83//26
f 83//26 80//26 81//26
f 83//26 81//26 84//26
f 86//27 92//27 93//27
f 86//27 93//27 87//27
f 87//28 93//28 94//28
f 87//28 94//28 88//28
f 88//29 94//29 95//29
f 88//29 95//29 89//29
f 89//30 95//30 96//30
f 89//30 96//30 90//30
f 90//31 96//31 91//31
f 90//31 91//31 85//31
f 97//32 100//32 101//32
f 97//32 101//32 98//32
f 98//32 101//32 102//32
f 98//32 102//32 99//32
o Windows_Windows.001
v 3.947757 -3.103963 3.503433
v 3.936615 -6.379704 3.499278
v 3.469381 -3.103963 6.474478
v 3.469097 -5.142000 6.479167
v 3.938472 3.176583 3.499970
v 3.469081 1.509425 6.479269
v -4.962864 3.176503 3.498239
v -4.460347 1.506567 6.475116
v -4.962864 3.176503 3.498239
v -4.966427 -0.799133 3.503432
v -4.966427 -3.103962 3.503432
v -4.962195 -6.379683 3.498238
v -4.460347 1.506567 6.475116
v -4.460163 -0.799133 6.476029
v -4.460163 -3.103962 6.476029
v -4.460286 -5.142768 6.475483
v 3.936615 -6.379704 3.499278
v 3.469097 -5.142000 6.479167
v -4.962195 -6.379683 3.498238
v -4.460286 -5.142768 6.475483
v 3.938472 3.176583 3.499970
v 3.947757 -0.799134 3.503433
v 3.469081 1.509425 6.479269
v 3.468587 -0.799134 6.479933
vn 0.987300 -0.003600 0.159000
vn 0.987900 0.000200 0.154900
vn -0.000100 0.872100 0.489300
vn -0.000600 0.872700 0.488300
vn -0.986000 -0.001500 0.166900
vn -0.985800 0.000000 0.167900
vn -0.985800 0.001100 0.167900
vn -0.986100 -0.000000 0.166400
vn -0.000100 -0.923500 0.383700
vn -0.000000 -0.923500 0.383600
vn 0.987600 0.002400 0.157000
vn 0.987300 -0.000200 0.158900
s off
f 104//33 103//33 105//33
f 104//34 105//34 106//34
f 107//35 109//35 110//35
f 110//36 108//36 107//36
f 113//37 114//37 118//37
f 118//38 117//38 113//38
f 111//39 112//39 116//39
f 111//40 116//40 115//40
f 120//41 122//41 121//41
f 121//42 119//42 120//42
f 124//43 123//43 125//43
f 125//44 126//44 124//44
o Headlight__Headlight_.001
v 3.613917 7.836898 2.201938
v 3.501202 7.836898 2.548841
v 3.206108 7.836898 2.763239
v 2.841352 7.836898 2.763239
v 2.736234 7.836898 2.686867
v 2.546258 7.836898 2.548841
v 2.433542 7.836898 2.201938
v 2.546258 7.836898 1.855035
v 2.660761 7.836898 1.771843
v 2.841352 7.836898 1.640636
v 3.206108 7.836898 1.640636
v 3.501202 7.836898 1.855035
v -3.575373 7.836898 2.201938
v -3.688088 7.836898 2.548842
v -3.983182 7.836898 2.763239
v -4.347938 7.836898 2.763239
v -4.456770 7.836898 2.684168
v -4.643032 7.836898 2.548841
v -4.755747 7.836898 2.201938
v -4.643032 7.836898 1.855035
v -4.536728 7.836898 1.777801
v -4.347939 7.836898 1.640637
v -3.983182 7.836898 1.640636
v -3.688087 7.836898 1.855035
v 3.597450 7.889223 2.202347
v 3.487914 7.889223 2.539465
v 3.201143 7.889223 2.747816
v 2.846676 7.889223 2.747816
v 2.744523 7.889223 2.673598
v 2.559906 7.889223 2.539465
v 2.450369 7.889223 2.202347
v 2.559906 7.889223 1.865229
v 2.671180 7.889223 1.784383
v 2.846676 7.889223 1.656877
v 3.201143 7.889223 1.656878
v 3.487915 7.889223 1.865229
v -3.591877 7.889223 2.202354
v -3.701413 7.889223 2.539473
v -3.988183 7.889223 2.747823
v -4.342650 7.889223 2.747823
v -4.448413 7.889223 2.670982
v -4.629421 7.889223 2.539473
v -4.738957 7.889223 2.202354
v -4.629422 7.889223 1.865235
v -4.526117 7.889223 1.790180
v -4.342651 7.889223 1.656885
v -3.988183 7.889223 1.656884
v -3.701412 7.889223 1.865235
vn 0.561800 0.293800 -0.773300
vn -0.000000 0.296600 -0.955000
vn -0.561300 0.296600 -0.772600
vn -0.909000 0.294000 -0.295400
vn -0.910300 0.289700 0.295800
vn -0.563300 0.285400 0.775400
vn -0.563400 0.285400 0.775400
vn 0.000000 0.282600 0.959200
vn 0.563800 0.282500 0.776100
vn 0.910300 0.289500 -0.295800
vn 0.911600 0.285200 0.296200
vn 0.910500 0.288800 -0.295800
vn 0.910500 0.288900 -0.295800
vn 0.561900 0.293400 -0.773400
vn 0.000000 0.296400 -0.955100
vn -0.561300 0.296900 -0.772500
vn -0.908900 0.294600 -0.295300
vn -0.910100 0.290400 0.295700
vn -0.563300 0.285800 0.775300
vn 0.000000 0.282700 0.959200
vn 0.563900 0.282300 0.776100
vn 0.911700 0.284600 0.296200
s off
f 150//45 149//45 173//45
f 173//45 174//45 150//45
f 149//46 148//46 172//46
f 172//46 173//46 149//46
f 148//47 147//47 171//47
f 171//47 172//47 148//47
f 147//47 146//47 170//47
f 170//47 171//47 147//47
f 146//48 145//48 169//48
f 169//48 170//48 146//48
f 145//49 144//49 168//49
f 168//49 169//49 145//49
f 144//50 143//50 167//50
f 167//51 168//51 144//51
f 143//50 142//50 166//50
f 166//50 167//50 143//50
f 142//52 141//52 165//52
f 165//52 166//52 142//52
f 141//53 140//53 164//53
f 164//53 165//53 141//53
f 139//54 150//54 174//54
f 174//54 163//54 139//54
f 140//55 139//55 163//55
f 163//55 164//55 140//55
f 127//56 138//56 162//56
f 127//57 162//57 151//57
f 138//58 137//58 161//58
f 161//58 162//58 138//58
f 137//59 136//59 160//59
f 160//59 161//59 137//59
f 136//60 135//60 159//60
f 159//60 160//60 136//60
f 135//60 134//60 158//60
f 158//60 159//60 135//60
f 134//61 133//61 157//61
f 157//61 158//61 134//61
f 133//62 132//62 156//62
f 156//62 157//62 133//62
f 132//63 131//63 155//63
f 155//63 156//63 132//63
f 131//63 130//63 154//63
f 154//63 155//63 131//63
f 130//64 129//64 153//64
f 153//64 154//64 130//64
f 129//65 128//65 152//65
f 152//65 153//65 129//65
f 128//66 127//66 151//66
f 151//66 152//66 128//66
o Headlights_Headlights.001
v 3.597450 7.900685 2.202347
v 3.487914 7.900685 2.539465
v 3.201143 7.900685 2.747816
v 2.846676 7.900685 2.747816
v 2.744523 7.900685 2.673598
v 2.559906 7.900685 2.539465
v 2.450369 7.900685 2.202347
v 2.559906 7.900685 1.865229
v 2.671180 7.900685 1.784383
v 2.846676 7.900685 1.656877
v 3.201143 7.900685 1.656878
v 3.487915 7.900685 1.865229
v -3.591877 7.900685 2.202354
v -3.701413 7.900685 2.539473
v -3.988183 7.900685 2.747823
v -4.342650 7.900685 2.747823
v -4.448413 7.900685 2.670982
v -4.629421 7.900685 2.539473
v -4.738957 7.900685 2.202354
v -4.629422 7.900685 1.865235
v -4.526117 7.900685 1.790180
v -4.342651 7.900685 1.656885
v -3.988183 7.900685 1.656884
v -3.701412 7.900685 1.865235
v 3.597450 7.969458 2.202347
v 3.487914 7.969458 2.539465
v 3.201143 7.969458 2.747816
v 2.846676 7.969458 2.747816
v 2.744523 7.969458 2.673598
v 2.559906 7.969458 2.539465
v 2.450369 7.969458 2.202347
v 2.559906 7.969458 1.865229
v 2.671180 7.969458 1.784383
v 2.846676 7.969458 1.656877
v 3.201143 7.969458 1.656878
v 3.487915 7.969458 1.865229
v -3.591877 7.969458 2.202354
v -3.701413 7.969458 2.539473
v -3.988183 7.969458 2.747823
v -4.342650 7.969458 2.747823
v -4.448413 7.969458 2.670982
v -4.629421 7.969458 2.539473
v -4.738957 7.969458 2.202354
v -4.629422 7.969458 1.865235
v -4.526117 7.969458 1.790180
v -4.342651 7.969458 1.656885
v -3.988183 7.969458 1.656884
v -3.701412 7.969458 1.865235
vn 0.000000 1.000000 -0.000000
vn 0.000000 0.000000 1.000000
vn 0.587800 0.000000 0.809000
vn -0.587800 0.000000 0.809000
vn 0.951100 0.000000 0.309000
vn 0.951100 0.000000 -0.309000
vn 0.587800 0.000000 -0.809000
vn 0.000000 0.000000 -1.000000
vn -0.587800 0.000000 -0.809000
vn -0.951100 0.000000 -0.309000
vn -0.951100 0.000000 0.309000
s off
f 202//67 201//67 200//67
f 203//67 202//67 200//67
f 203//67 200//67 199//67
f 199//67 210//67 209//67
f 209//67 208//67 207//67
f 199//67 209//67 207//67
f 199//67 207//67 206//67
f 199//67 206//67 205//67
f 203//67 199//67 205//67
f 204//67 203//67 205//67
f 214//67 213//67 212//67
f 215//67 214//67 212//67
f 215//67 212//67 211//67
f 211//67 222//67 221//67
f 221//67 220//67 219//67
f 211//67 221//67 219//67
f 211//67 219//67 218//67
f 211//67 218//67 217//67
f 215//67 211//67 217//67
f 216//67 215//67 217//67
f 178//68 177//68 201//68
f 201//68 202//68 178//68
f 177//69 176//69 200//69
f 200//69 201//69 177//69
f 179//70 178//70 202//70
f 202//70 203//70 179//70
f 176//71 175//71 199//71
f 199//71 200//71 176//71
f 175//72 186//72 210//72
f 175//72 210//72 199//72
f 186//73 185//73 209//73
f 209//73 210//73 186//73
f 185//74 184//74 208//74
f 208//74 209//74 185//74
f 184//75 183//75 207//75
f 207//75 208//75 184//75
f 183//75 182//75 206//75
f 206//75 207//75 183//75
f 182//76 181//76 205//76
f 205//76 206//76 182//76
f 180//70 179//70 203//70
f 203//70 204//70 180//70
f 181//77 180//77 204//77
f 204//77 205//77 181//77
f 190//68 189//68 213//68
f 213//68 214//68 190//68
f 189//69 188//69 212//69
f 212//69 213//69 189//69
f 191//70 190//70 214//70
f 214//70 215//70 191//70
f 188//71 187//71 211//71
f 211//71 212//71 188//71
f 187//72 198//72 222//72
f 222//72 211//72 187//72
f 198//73 197//73 221//73
f 221//73 222//73 198//73
f 197//74 196//74 220//74
f 220//74 221//74 197//74
f 196//75 195//75 219//75
f 219//75 220//75 196//75
f 195//75 194//75 218//75
f 218//75 219//75 195//75
f 194//76 193//76 217//76
f 217//76 218//76 194//76
f 192//70 191//70 215//70
f 215//70 216//70 192//70
f 193//77 192//77 216//77
f 216//77 217//77 193//77
o Brake_ligh_Brake_ligh.001
v 4.264974 -9.461222 1.637782
v 3.117873 -9.461222 1.637782
v 4.264974 -9.461222 2.803687
v 3.117873 -9.461222 2.803687
v -4.121140 -9.461222 1.637782
v -5.268240 -9.461222 1.637782
v -4.121140 -9.461222 2.803687
v -5.268240 -9.461222 2.803687
v -5.268240 -9.461221 2.735742
v 4.264974 -9.561538 1.637782
v 3.117873 -9.561538 1.637782
v 4.264974 -9.561538 2.803687
v 3.117873 -9.561538 2.803687
v -4.121140 -9.561538 1.637782
v -5.268240 -9.561538 1.637782
v -4.121140 -9.561538 2.803687
v -5.268240 -9.561538 2.803687
v -5.268240 -9.561538 2.735742
vn 0.000000 -1.000000 0.000000
vn 0.000000 0.000000 -1.000000
vn 1.000000 0.000000 0.000000
vn 0.000000 0.000000 1.000000
vn -1.000000 0.000000 0.000000
s off
f 233//78 232//78 234//78
f 234//78 235//78 233//78
f 240//78 237//78 236//78
f 239//78 240//78 236//78
f 239//78 236//78 238//78
f 224//79 223//79 232//79
f 232//79 233//79 224//79
f 223//80 225//80 234//80
f 223//80 234//80 232//80
f 225//81 226//81 235//81
f 235//81 234//81 225//81
f 226//82 224//82 233//82
f 233//82 235//82 226//82
f 227//80 229//80 238//80
f 238//80 236//80 227//80
f 231//82 228//82 237//82
f 237//82 240//82 231//82
f 228//79 227//79 236//79
f 236//79 237//79 228//79
f 230//82 231//82 240//82
f 240//82 239//82 230//82
f 229//81 230//81 239//81
f 239//81 238//81 229//81
o Box02_Box02.001
v -5.611134 -9.461221 -0.640301
v 4.601032 -9.461221 -0.640301
v -5.611133 -7.640731 -0.654094
v 4.601033 -7.640730 -0.654094
v -4.589801 -7.331255 -0.654094
v 3.483755 -7.331257 -0.654094
v -4.589802 -3.950223 -0.654094
v 3.483754 -3.950221 -0.654094
v -5.611134 -3.662912 -0.654094
v 4.601032 -3.662910 -0.654094
v -5.611133 1.030597 -0.654096
v 4.601033 1.030596 -0.654096
v -4.589801 1.330340 -0.654096
v 3.483755 1.330340 -0.654096
v -4.589802 4.691315 -0.654097
v 3.483754 4.691315 -0.654097
v -5.611135 5.003501 -0.654096
v 4.601031 5.003505 -0.654096
v -5.611134 7.836898 -0.640301
v 4.601032 7.836898 -0.640301
v -5.611134 -9.461221 3.063946
v 4.601032 -9.461222 3.063946
v -5.611134 -7.942720 3.078204
v 4.601032 -7.942719 3.078204
v -5.611134 4.088238 3.078202
v 4.601032 4.088238 3.078202
v -5.611134 7.836898 3.078202
v 4.601032 7.836898 3.078202
v -5.611134 -9.461221 1.114915
v 4.601032 -9.461221 1.114915
v 4.601034 -7.626188 2.240051
v 3.483755 -7.331258 1.937278
v 3.483754 -3.950221 1.937279
v 4.601031 -3.662909 2.239783
v 4.601033 1.038734 2.279518
v 3.483755 1.330340 1.925238
v 3.483754 4.691315 1.925238
v 4.601031 5.003504 2.267411
v 4.601032 7.836898 1.114916
v -5.611134 7.836898 1.114916
v -5.611135 5.003499 2.262779
v -4.589802 4.691313 1.925238
v -4.589801 1.330339 1.925238
v -5.611133 1.041449 2.277027
v -5.611135 -3.662910 2.235201
v -4.589802 -3.950222 1.937279
v -4.589801 -7.331258 1.937278
v -5.611132 -7.626190 2.245639
v 4.601032 7.836898 1.303788
v -5.611134 7.836898 1.303788
v -5.611135 5.003499 2.272043
v -5.611135 -3.662910 2.244366
v 5.109924 -7.640731 -0.654094
v 5.109924 -7.331256 -0.654094
v 5.109923 -3.950221 -0.654094
v 5.109922 -3.662910 -0.654094
v 5.109923 1.030596 -0.654096
v 5.109923 1.330340 -0.654096
v 5.109923 4.691317 -0.654096
v 5.109922 5.003505 -0.654096
v 5.109924 -7.640732 2.246911
v 5.109924 -7.331258 1.937278
v 5.109923 -3.950220 1.937279
v 5.109921 -3.662909 2.235201
v 5.109924 1.030597 2.286992
v 5.109923 1.330340 1.925238
v 5.109923 4.691315 1.925238
v 5.109921 5.003504 2.262779
v 5.109925 -7.611643 2.244367
v 5.109921 -3.662909 2.244366
v 5.109924 1.046872 2.272044
v 5.109921 5.003504 2.272043
v -6.270259 -7.640731 -0.654094
v -6.270259 -7.331257 -0.654094
v -6.270260 -3.950223 -0.654094
v -6.270261 -3.662911 -0.654094
v -6.270260 1.030597 -0.654096
v -6.270260 1.330340 -0.654096
v -6.270260 4.691314 -0.654096
v -6.270261 5.003502 -0.654096
v -6.270262 5.003499 2.262779
v -6.270260 4.691311 1.925238
v -6.270260 1.330339 1.925238
v -6.270259 1.041449 2.277027
v -6.270262 -3.662910 2.235201
v -6.270260 -3.950223 1.937279
v -6.270259 -7.331259 1.937278
v -6.270258 -7.621340 2.245214
v -6.270262 5.003499 2.272043
v -6.270262 -3.662910 2.244366
v -4.951703 -5.602250 6.992411
v 3.941159 -5.602250 6.992411
v -4.951703 1.782789 6.992413
v 3.941159 1.782789 6.992413
v -5.528245 -0.799133 3.503432
v -5.528245 3.176748 3.503433
v -5.528244 -6.379775 3.503434
v -5.528245 -3.103962 3.503433
v -5.020605 -0.799133 6.480924
v -5.020605 1.505696 6.480925
v -5.020605 -3.103961 6.480924
v -5.020605 -5.138411 6.480925
v 4.524035 3.176746 3.503433
v 4.524035 -0.799134 3.503433
v 4.524035 -3.103963 3.503433
v 4.524036 -6.379777 3.503434
v 4.035941 1.505695 6.480925
v 4.035941 -0.799134 6.480925
v 4.035941 -3.103963 6.480925
v 4.035941 -5.138412 6.480925
v 3.938472 3.176583 3.499970
v 3.947757 -0.799134 3.503433
v 3.947757 -3.103963 3.503433
v 3.936615 -6.379704 3.499278
v 3.469081 1.509425 6.479269
v 3.468587 -0.799134 6.479933
v 3.469381 -3.103963 6.474478
v 3.469097 -5.142000 6.479167
v -4.962864 3.176503 3.498239
v -4.966427 -0.799133 3.503432
v -4.966427 -3.103962 3.503432
v -4.962195 -6.379683 3.498238
v -4.460347 1.506567 6.475116
v -4.460163 -0.799133 6.476029
v -4.460163 -3.103962 6.476029
v -4.460286 -5.142768 6.475483
v -4.961725 -7.694670 3.493043
v -4.961725 3.843898 3.493043
v 3.934641 3.843898 3.493043
v 3.468062 2.083752 6.481433
v -4.460299 -5.907785 6.481433
v -4.460299 2.083753 6.481433
v 3.934641 -7.694669 3.493043
v 3.468062 -5.907784 6.481433
v 4.601032 7.836898 2.641579
v -5.611134 7.836898 2.641579
v -2.550526 7.836898 3.078202
v -2.796435 7.836898 1.303788
v 1.377843 7.836898 3.078202
v 1.623481 7.836898 1.303788
v -5.611134 7.836898 3.078202
v 4.601032 7.836898 3.078202
v 4.601032 7.836898 2.887393
v -2.789128 7.836898 2.879419
v -5.611134 7.836898 2.887393
v 1.623481 7.836898 2.887644
v 4.264974 -9.461222 1.637782
v 3.117873 -9.461222 1.637782
v 4.264974 -9.461222 2.803687
v 3.117873 -9.461222 2.803687
v -4.121140 -9.461222 1.637782
v -5.268240 -9.461222 1.637782
v -4.121140 -9.461222 2.803687
v -5.268240 -9.461222 2.803687
v -5.268240 -9.461221 2.735742
v 3.613917 7.836898 2.201938
v 3.501201 7.836898 2.548841
v 3.206108 7.836898 2.763239
v 2.841352 7.836898 2.763239
v 2.736234 7.836898 2.686867
v 2.546258 7.836898 2.548841
v 2.433542 7.836898 2.201938
v 2.546258 7.836898 1.855035
v 2.660761 7.836898 1.771843
v 2.841352 7.836898 1.640636
v 3.206108 7.836898 1.640636
v 3.501202 7.836898 1.855035
v -3.575373 7.836898 2.201938
v -3.688088 7.836898 2.548842
v -3.983182 7.836898 2.763239
v -4.347938 7.836898 2.763239
v -4.456770 7.836898 2.684168
v -4.643032 7.836898 2.548841
v -4.755747 7.836898 2.201938
v -4.643033 7.836898 1.855035
v -4.536729 7.836898 1.777801
v -4.347939 7.836898 1.640637
v -3.983182 7.836898 1.640636
v -3.688087 7.836898 1.855035
v 3.597450 7.889224 2.202347
v 3.487914 7.889224 2.539465
v 3.201143 7.889224 2.747816
v 2.846676 7.889224 2.747816
v 2.744523 7.889224 2.673598
v 2.559906 7.889224 2.539465
v 2.450369 7.889224 2.202347
v 2.559906 7.889224 1.865229
v 2.671180 7.889224 1.784383
v 2.846676 7.889224 1.656877
v 3.201143 7.889224 1.656878
v 3.487914 7.889224 1.865229
v -3.591877 7.889224 2.202354
v -3.701413 7.889224 2.539473
v -3.988183 7.889224 2.747823
v -4.342650 7.889224 2.747823
v -4.448414 7.889224 2.670982
v -4.629421 7.889224 2.539473
v -4.738958 7.889224 2.202354
v -4.629422 7.889224 1.865235
v -4.526117 7.889224 1.790180
v -4.342651 7.889224 1.656885
v -3.988183 7.889224 1.656884
v -3.701412 7.889224 1.865235
v 3.597450 7.900685 2.202347
v 3.487914 7.900685 2.539465
v 3.201143 7.900685 2.747816
v 2.846676 7.900685 2.747816
v 2.744523 7.900685 2.673598
v 2.559906 7.900685 2.539465
v 2.450369 7.900685 2.202347
v 2.559906 7.900685 1.865229
v 2.671180 7.900685 1.784383
v 2.846676 7.900685 1.656877
v 3.201143 7.900685 1.656878
v 3.487914 7.900685 1.865229
v -3.591877 7.900685 2.202354
v -3.701413 7.900685 2.539473
v -3.988183 7.900685 2.747823
v -4.342650 7.900685 2.747823
v -4.448414 7.900685 2.670982
v -4.629421 7.900685 2.539473
v -4.738958 7.900685 2.202354
v -4.629422 7.900685 1.865235
v -4.526117 7.900685 1.790180
v -4.342651 7.900685 1.656885
v -3.988183 7.900685 1.656884
v -3.701412 7.900685 1.865235
v 4.601033 -7.640730 -0.654094
v 3.483755 -7.331257 -0.654094
v 3.483754 -3.950221 -0.654094
v 3.483755 -7.331257 -0.654094
v 4.601032 -3.662910 -0.654094
v 4.601033 1.030596 -0.654096
v 4.601032 -3.662910 -0.654094
v 3.483755 1.330340 -0.654096
v 3.483754 4.691315 -0.654097
v 3.483755 1.330340 -0.654096
v 4.601031 5.003505 -0.654096
v 4.601032 7.836898 -0.640301
v 4.601031 5.003505 -0.654096
v 4.601034 -7.626188 2.240051
v 4.601032 -9.461222 3.063946
v 5.109925 -7.611643 2.244367
v 5.109925 -7.611643 2.244367
v 5.109924 1.046872 2.272044
v 5.109924 1.046872 2.272044
v 4.601032 -9.461222 3.063946
v 4.601034 -7.626188 2.240051
v 4.601032 -7.942719 3.078204
v 4.601034 -7.626188 2.240051
v 4.601031 -3.662909 2.239783
v 4.601032 -7.942719 3.078204
v 4.601031 -3.662909 2.239783
v 4.601033 1.038734 2.279518
v 4.601032 -7.942719 3.078204
v 4.601031 -3.662909 2.239783
v 4.601033 1.038734 2.279518
v 4.601031 5.003504 2.267411
v 4.601032 4.088238 3.078202
v 4.601031 5.003504 2.267411
v 4.601031 5.003504 2.267411
v 4.601031 5.003504 2.267411
v 4.601032 4.088238 3.078202
v 4.601032 7.836898 1.114916
v 4.601032 7.836898 1.114916
v 4.601032 7.836898 1.114916
v 4.601032 7.836898 1.114916
v 4.601032 7.836898 1.303788
v -5.611134 7.836898 -0.640301
v -5.611135 5.003501 -0.654096
v -5.611134 7.836898 1.114916
v -5.611134 7.836898 -0.640301
v -4.589802 4.691315 -0.654097
v -4.589801 1.330340 -0.654096
v -4.589802 4.691315 -0.654097
v -5.611133 1.030597 -0.654096
v -5.611134 -3.662912 -0.654094
v -5.611133 1.030597 -0.654096
v -4.589802 -3.950223 -0.654094
v -4.589801 -7.331255 -0.654094
v -4.589802 -3.950223 -0.654094
v -5.611133 -7.640731 -0.654094
v -5.611133 -7.640731 -0.654094
v -5.611134 7.836898 1.114916
v -5.611134 7.836898 1.303788
v -5.611134 7.836898 1.114916
v -6.270259 1.041449 2.277027
v -6.270259 1.041449 2.277027
v -6.270259 1.041449 2.277027
v -6.270258 -7.621340 2.245214
v -6.270258 -7.621340 2.245214
v -6.270258 -7.621340 2.245214
v -5.611134 -9.461221 3.063946
v -5.611134 7.836898 1.303788
v -5.611134 7.836898 1.303788
v -5.611133 1.041449 2.277027
v -5.611134 4.088238 3.078202
v -5.611133 1.041449 2.277027
v -5.611134 -7.942720 3.078204
v -5.611134 -7.942720 3.078204
v -5.611134 4.088238 3.078202
v -5.611133 1.041449 2.277027
v -5.611132 -7.626190 2.245639
v -5.611134 -7.942720 3.078204
v -5.611134 -9.461221 3.063946
v -5.611134 -7.942720 3.078204
v -5.611132 -7.626190 2.245639
v 4.601033 -7.640730 -0.654094
v 3.483755 -7.331257 -0.654094
v 4.601033 -7.640730 -0.654094
v 3.483754 -3.950221 -0.654094
v 4.601032 -3.662910 -0.654094
v 3.483754 -3.950221 -0.654094
v 4.601033 1.030596 -0.654096
v 3.483755 1.330340 -0.654096
v 4.601033 1.030596 -0.654096
v 3.483754 4.691315 -0.654097
v 4.601031 5.003505 -0.654096
v 3.483754 4.691315 -0.654097
v 4.601033 -7.640730 -0.654094
v 3.483755 -7.331257 -0.654094
v 3.483755 -7.331257 -0.654094
v 3.483754 -3.950221 -0.654094
v 4.601032 -3.662910 -0.654094
v 4.601032 -3.662910 -0.654094
v 4.601033 1.030596 -0.654096
v 3.483755 1.330340 -0.654096
v 3.483755 1.330340 -0.654096
v 3.483754 4.691315 -0.654097
v 4.601031 5.003505 -0.654096
v 4.601031 5.003505 -0.654096
v 5.109925 -7.611643 2.244367
v 4.601034 -7.626188 2.240051
v 4.601031 -3.662909 2.239783
v 4.601034 -7.626188 2.240051
v 5.109925 -7.611643 2.244367
v 5.109925 -7.611643 2.244367
v 4.601031 -3.662909 2.239783
v 5.109924 1.046872 2.272044
v 4.601033 1.038734 2.279518
v 4.601031 5.003504 2.267411
v 4.601033 1.038734 2.279518
v 5.109924 1.046872 2.272044
v 5.109924 1.046872 2.272044
v 4.601031 5.003504 2.267411
v -4.589801 -7.331255 -0.654094
v -5.611133 -7.640731 -0.654094
v -4.589801 -7.331255 -0.654094
v -5.611134 -3.662912 -0.654094
v -4.589802 -3.950223 -0.654094
v -5.611134 -3.662912 -0.654094
v -4.589801 1.330340 -0.654096
v -5.611133 1.030597 -0.654096
v -4.589801 1.330340 -0.654096
v -5.611135 5.003501 -0.654096
v -4.589802 4.691315 -0.654097
v -5.611135 5.003501 -0.654096
v -5.611135 5.003501 -0.654096
v -4.589802 4.691315 -0.654097
v -4.589802 4.691315 -0.654097
v -4.589801 1.330340 -0.654096
v -5.611133 1.030597 -0.654096
v -5.611133 1.030597 -0.654096
v -5.611134 -3.662912 -0.654094
v -4.589802 -3.950223 -0.654094
v -4.589802 -3.950223 -0.654094
v -4.589801 -7.331255 -0.654094
v -5.611133 -7.640731 -0.654094
v -5.611133 -7.640731 -0.654094
v -5.611133 1.041449 2.277027
v -6.270259 1.041449 2.277027
v -5.611133 1.041449 2.277027
v -5.611132 -7.626190 2.245639
v -6.270258 -7.621340 2.245214
v -5.611132 -7.626190 2.245639
v -4.460163 -3.103962 6.476029
v -4.460163 -3.103962 6.476029
v 3.469381 -3.103963 6.474478
v 3.469381 -3.103963 6.474478
v -4.460163 -3.103962 6.476029
v -4.460163 -0.799133 6.476029
v -4.460163 -0.799133 6.476029
v 3.468587 -0.799134 6.479933
v 3.469381 -3.103963 6.474478
v 3.468587 -0.799134 6.479933
v -4.460163 -0.799133 6.476029
v 3.468587 -0.799134 6.479933
v -4.460347 1.506567 6.475116
v -4.460347 1.506567 6.475116
v 4.035941 -0.799134 6.480925
v 3.469097 -5.142000 6.479167
v 3.469097 -5.142000 6.479167
v 4.035941 -5.138412 6.480925
v 3.469081 1.509425 6.479269
v 4.035941 1.505695 6.480925
v 3.469081 1.509425 6.479269
v 4.035941 -3.103963 6.480925
v -4.460286 -5.142768 6.475483
v -5.020605 -0.799133 6.480924
v -5.528245 -0.799133 3.503432
v -5.528245 -3.103962 3.503433
v -5.528245 -3.103962 3.503433
v -5.020605 -3.103961 6.480924
v -5.020605 -0.799133 6.480924
v -5.528245 -0.799133 3.503432
v -5.528245 3.176748 3.503433
v -5.611134 4.088238 3.078202
v -5.528244 -6.379775 3.503434
v -5.611134 -7.942720 3.078204
v -5.020605 -5.138411 6.480925
v -5.528244 -6.379775 3.503434
v -5.611134 -7.942720 3.078204
v -5.528244 -6.379775 3.503434
v -5.528245 -3.103962 3.503433
v -5.611134 -7.942720 3.078204
v -5.528245 -3.103962 3.503433
v -5.528245 -0.799133 3.503432
v -5.611134 -7.942720 3.078204
v -5.528245 -0.799133 3.503432
v -5.611134 4.088238 3.078202
v -5.528245 3.176748 3.503433
v -5.020605 1.505696 6.480925
v -5.611134 4.088238 3.078202
v -5.528245 3.176748 3.503433
v -5.020605 1.505696 6.480925
v -5.020605 -0.799133 6.480924
v -5.020605 -3.103961 6.480924
v -5.020605 -5.138411 6.480925
v -5.020605 -0.799133 6.480924
v -5.020605 -3.103961 6.480924
v -5.020605 -0.799133 6.480924
v 4.601032 -7.942719 3.078204
v 4.524036 -6.379777 3.503434
v 4.524036 -6.379777 3.503434
v 4.524035 3.176746 3.503433
v 4.524035 3.176746 3.503433
v 4.601032 4.088238 3.078202
v 4.601032 4.088238 3.078202
v 4.524035 3.176746 3.503433
v 4.524035 -0.799134 3.503433
v 4.524035 -0.799134 3.503433
v 4.601032 -7.942719 3.078204
v 4.601032 4.088238 3.078202
v 4.524035 -3.103963 3.503433
v 4.524035 -0.799134 3.503433
v 4.524035 -0.799134 3.503433
v 4.524035 -3.103963 3.503433
v 4.601032 -7.942719 3.078204
v 4.524035 -0.799134 3.503433
v 4.524035 -3.103963 3.503433
v 4.524036 -6.379777 3.503434
v 4.601032 -7.942719 3.078204
v 4.035941 1.505695 6.480925
v 4.035941 -0.799134 6.480925
v 3.468587 -0.799134 6.479933
v 3.468587 -0.799134 6.479933
v 3.469081 1.509425 6.479269
v 4.035941 1.505695 6.480925
v 4.035941 -3.103963 6.480925
v 4.035941 -5.138412 6.480925
v 3.469097 -5.142000 6.479167
v 3.469097 -5.142000 6.479167
v 3.469381 -3.103963 6.474478
v 4.035941 -3.103963 6.480925
v -5.611134 -7.942720 3.078204
v -5.611134 -7.942720 3.078204
v 4.601032 -7.942719 3.078204
v 4.601032 4.088238 3.078202
v -4.460347 1.506567 6.475116
v -4.460347 1.506567 6.475116
v -4.460163 -0.799133 6.476029
v -4.460163 -3.103962 6.476029
v -4.460163 -3.103962 6.476029
v -4.460286 -5.142768 6.475483
v 3.468062 2.083752 6.481433
v 3.469081 1.509425 6.479269
v -4.460347 1.506567 6.475116
v -4.460347 1.506567 6.475116
v 3.468062 2.083752 6.481433
v 3.934641 -7.694669 3.493043
v 3.936615 -6.379704 3.499278
v -4.962195 -6.379683 3.498238
v -4.962195 -6.379683 3.498238
v -4.961725 -7.694670 3.493043
v 3.934641 -7.694669 3.493043
v 3.936615 -6.379704 3.499278
v 3.934641 -7.694669 3.493043
v 3.469097 -5.142000 6.479167
v 3.936615 -6.379704 3.499278
v -4.961725 -7.694670 3.493043
v -4.962195 -6.379683 3.498238
v -4.962195 -6.379683 3.498238
v -4.460286 -5.142768 6.475483
v -4.962864 3.176503 3.498239
v -4.460299 2.083753 6.481433
v -4.460299 2.083753 6.481433
v -4.460347 1.506567 6.475116
v -4.962864 3.176503 3.498239
v 3.938472 3.176583 3.499970
v 3.469081 1.509425 6.479269
v 3.468062 2.083752 6.481433
v 3.468062 2.083752 6.481433
v 3.934641 3.843898 3.493043
v 3.938472 3.176583 3.499970
v 3.934641 3.843898 3.493043
v -4.961725 3.843898 3.493043
v -4.962864 3.176503 3.498239
v -4.962864 3.176503 3.498239
v 3.938472 3.176583 3.499970
v 3.934641 3.843898 3.493043
v -4.460286 -5.142768 6.475483
v 3.468062 -5.907784 6.481433
v -4.460299 -5.907785 6.481433
v -4.460286 -5.142768 6.475483
v -5.611134 4.088238 3.078202
v 4.601032 4.088238 3.078202
v -5.611134 4.088238 3.078202
v -5.611134 4.088238 3.078202
v -5.611134 4.088238 3.078202
v -2.550526 7.836898 3.078202
v 1.377843 7.836898 3.078202
v -5.611134 7.836898 2.887393
v -5.611134 7.836898 2.887393
v -5.611134 7.836898 2.887393
v -5.611134 7.836898 2.887393
v -5.611134 7.836898 2.887393
v -2.789128 7.836898 2.879419
v -2.789128 7.836898 2.879419
v -2.789128 7.836898 2.879419
v -2.789128 7.836898 2.879419
v 4.601032 7.836898 1.303788
v 4.601032 7.836898 1.303788
v 4.601032 7.836898 1.303788
v 4.601032 7.836898 1.303788
v 1.623481 7.836898 2.887644
v 1.623481 7.836898 2.887644
v 1.623481 7.836898 2.887644
v 1.623481 7.836898 2.887644
v 1.623481 7.836898 2.887644
v 4.601032 7.836898 2.887393
v 4.601032 7.836898 2.887393
v 4.601032 7.836898 2.887393
v 4.601032 7.836898 1.303788
v 4.601032 7.836898 2.887393
v -2.550526 7.836898 3.078202
v -2.550526 7.836898 3.078202
v 1.377843 7.836898 3.078202
v 3.468062 -5.907784 6.481433
v -4.460299 -5.907785 6.481433
v 3.468062 -5.907784 6.481433
v -5.611134 -7.942720 3.078204
v -4.460299 -5.907785 6.481433
v 4.601032 -7.942719 3.078204
v 3.468062 -5.907784 6.481433
v -4.961725 3.843898 3.493043
v -5.611134 4.088238 3.078202
v -4.460299 2.083753 6.481433
v -4.961725 3.843898 3.493043
v -4.460299 2.083753 6.481433
v -4.961725 3.843898 3.493043
v 4.601032 4.088238 3.078202
v 4.601032 4.088238 3.078202
v -5.611134 4.088238 3.078202
v -4.961725 3.843898 3.493043
v -5.611134 -9.461221 3.063946
v -5.611134 -9.461221 3.063946
v -5.611134 -9.461221 3.063946
v -5.611134 -9.461221 3.063946
v -5.611134 -9.461221 3.063946
v -5.611134 -9.461221 3.063946
v -5.611134 -9.461221 1.114915
v -5.611134 -9.461221 3.063946
v 4.601032 -9.461222 3.063946
v -5.611134 -9.461221 3.063946
v 4.601032 -9.461222 3.063946
v 4.601032 -9.461221 1.114915
v 4.601032 -9.461222 3.063946
v 4.601032 -9.461221 1.114915
v -5.611134 -9.461221 1.114915
v -5.611134 -9.461221 1.114915
v 4.601032 -9.461221 1.114915
v -5.611134 -9.461221 1.114915
vn 0.000000 -0.007600 -1.000000
vn 0.000000 -0.000000 -1.000000
vn 0.000000 0.004900 -1.000000
vn 0.000000 -0.009400 1.000000
vn 0.000000 -0.000000 1.000000
vn 1.000000 0.000000 -0.000000
vn 1.000000 -0.000200 -0.000000
vn 1.000000 0.000100 0.000000
vn 0.000000 1.000000 0.000000
vn -1.000000 0.000000 0.000000
vn -1.000000 0.000000 -0.000100
vn -0.000000 -1.000000 0.005000
vn -0.028600 -0.999600 -0.000000
vn 0.000000 -1.000000 0.000000
vn 0.000000 -1.000000 0.002800
vn -0.016000 -0.999900 0.000000
vn -0.010900 0.087100 0.996100
vn -0.008500 0.000100 1.000000
vn -0.009000 0.000000 1.000000
vn -0.000000 0.676400 0.736500
vn 0.014600 0.003100 0.999900
vn -0.009100 0.000000 1.000000
vn 0.000000 -1.000000 0.003700
vn -0.007400 -1.000000 0.005000
vn 0.000000 -1.000000 0.006700
vn 0.000000 0.001300 1.000000
vn 0.000000 0.000300 1.000000
vn -0.000600 0.000200 1.000000
vn 0.983300 0.000000 0.182200
vn -0.987300 0.000000 -0.159000
vn -0.987300 0.000000 -0.158900
vn 0.985800 0.000000 -0.167900
vn 0.000500 0.000300 -1.000000
vn -0.000200 -0.002300 -1.000000
vn -0.000200 0.000000 -1.000000
vn 0.000500 0.002400 -1.000000
vn 0.000500 -0.000400 -1.000000
vn 0.000500 -0.000300 -1.000000
vn -0.004900 -0.872500 -0.488600
vn -0.003700 -0.872300 -0.488900
vn 0.002800 0.923700 -0.383200
vn -0.004600 0.922700 -0.385500
vn -0.005900 0.000900 1.000000
vn -0.000000 -0.001300 1.000000
vn -0.007100 0.000000 1.000000
vn 0.003100 -0.872900 -0.487900
vn -0.004300 -0.871700 -0.490000
vn 0.009200 -0.000000 1.000000
vn 0.009200 -0.001600 1.000000
vn -0.003700 0.923200 -0.384300
vn 0.003400 0.923300 -0.384200
vn -0.985800 -0.000000 0.168100
vn -0.981500 0.000000 0.191300
vn -0.986900 0.008500 0.161200
vn -0.987200 0.026700 0.157200
vn -0.988100 -0.032100 0.150500
vn -0.987500 -0.016800 0.156500
vn -0.991000 -0.000000 0.133500
vn 0.986500 0.004000 0.163900
vn 0.985600 -0.015900 0.168200
vn 0.984900 0.019100 0.172200
vn 0.986800 -0.007900 0.161700
vn 0.984000 0.000000 0.178200
vn 0.986800 0.000000 0.161800
vn 0.001700 0.000000 -1.000000
vn 0.002900 -0.000300 -1.000000
vn 0.003100 0.000000 -1.000000
vn 0.011400 -0.002300 -0.999900
vn 0.000000 -0.858300 0.513200
vn -0.000000 0.861600 0.507500
vn -0.010400 0.000000 -0.999900
vn -0.008700 -0.000400 -1.000000
vn -0.008700 -0.000000 -1.000000
vn -0.009700 0.000300 -1.000000
vn 0.000500 0.003800 -1.000000
vn -0.000000 0.010900 -0.999900
vn -0.000100 -0.004700 1.000000
vn 0.000000 -0.004000 1.000000
vn -0.987800 0.002200 -0.155600
vn -0.987900 0.000900 -0.155300
vn 0.986100 0.001000 -0.166100
vn 0.986200 -0.001300 -0.165700
vn 0.985900 -0.003000 -0.167200
vn 0.986200 0.001700 -0.165500
vn -0.987700 -0.001200 -0.156300
vn -0.987300 -0.007300 -0.158500
vn 0.000000 0.007800 1.000000
vn -0.000200 0.010400 0.999900
vn -0.000000 -0.007800 -1.000000
vn 0.000500 -0.003000 -1.000000
vn 0.000000 -1.000000 0.000100
vn 0.587800 0.000000 0.809000
vn -0.587800 0.000000 0.809000
vn 0.951100 0.000000 0.309000
vn 0.951100 0.000000 -0.309000
vn 0.587800 0.000000 -0.809000
vn -0.587800 0.000000 -0.809000
vn -0.951100 0.000000 -0.309000
vn -0.951100 0.000000 0.309000
s off
f 241//83 243//83 244//83
f 241//83 244//83 242//83
f 243//84 245//84 246//84
f 246//84 244//84 243//84
f 245//84 247//84 248//84
f 248//84 246//84 245//84
f 247//84 249//84 250//84
f 250//84 248//84 247//84
f 249//84 251//84 252//84
f 252//84 250//84 249//84
f 251//84 253//84 254//84
f 254//84 252//84 251//84
f 253//84 255//84 256//84
f 256//84 254//84 253//84
f 255//84 257//84 258//84
f 258//84 256//84 255//84
f 257//85 259//85 260//85
f 260//85 258//85 257//85
f 261//86 262//86 264//86
f 264//86 263//86 261//86
f 331//87 332//87 334//87
f 334//87 333//87 331//87
f 242//88 468//88 271//88
f 271//88 270//88 242//88
f 293//88 294//88 302//88
f 302//88 301//88 293//88
f 469//88 470//88 273//88
f 273//88 272//88 471//88
f 295//88 296//88 304//88
f 304//88 303//88 295//88
f 472//88 473//88 275//88
f 275//88 274//88 474//88
f 297//88 298//88 306//88
f 306//88 305//88 297//88
f 475//88 476//88 277//88
f 277//88 276//88 477//88
f 299//88 300//88 308//88
f 308//88 307//88 299//88
f 478//88 479//88 279//88
f 279//88 278//88 480//88
f 481//88 482//88 270//88
f 301//88 302//88 309//88
f 302//88 303//88 483//88
f 303//88 304//88 310//88
f 310//88 484//88 303//88
f 305//89 306//89 311//89
f 306//88 307//88 485//88
f 307//90 308//90 312//90
f 312//88 486//88 307//88
f 278//88 279//88 289//88
f 487//88 488//88 489//88
f 490//88 491//88 492//88
f 493//88 494//88 266//88
f 266//88 495//88 496//88
f 497//88 498//88 499//88
f 500//88 289//88 375//88
f 501//88 375//88 268//88
f 502//88 268//88 503//88
f 504//91 280//91 290//91
f 505//91 290//91 378//91
f 506//91 378//91 380//91
f 507//91 380//91 508//91
f 509//92 510//92 281//92
f 281//92 511//92 512//92
f 320//92 319//92 322//92
f 322//92 321//92 320//92
f 513//92 514//92 283//92
f 283//92 282//92 515//92
f 318//92 317//92 324//92
f 324//92 323//92 318//92
f 516//92 517//92 285//92
f 285//92 284//92 518//92
f 316//92 315//92 326//92
f 326//92 325//92 316//92
f 519//92 520//92 287//92
f 287//92 286//92 521//92
f 314//92 313//92 328//92
f 328//92 327//92 314//92
f 522//92 241//92 269//92
f 269//92 288//92 523//92
f 524//93 281//93 291//93
f 291//92 525//92 526//92
f 321//92 322//92 527//92
f 528//92 329//92 321//92
f 322//92 323//92 529//92
f 284//92 285//92 292//92
f 325//92 326//92 530//92
f 531//92 330//92 325//92
f 326//92 327//92 532//92
f 288//92 269//92 533//92
f 265//92 267//92 376//92
f 265//92 376//92 534//92
f 265//92 535//92 291//92
f 291//92 536//92 537//92
f 538//92 292//92 539//92
f 540//92 541//92 542//92
f 292//92 543//92 544//92
f 545//92 546//92 547//92
f 548//84 549//84 294//84
f 294//84 293//84 550//84
f 551//84 552//84 296//84
f 296//84 295//84 553//84
f 554//84 555//84 298//84
f 298//84 297//84 556//84
f 557//84 558//84 300//84
f 300//84 299//84 559//84
f 271//94 560//94 293//94
f 293//95 301//95 271//95
f 561//91 272//91 302//91
f 302//91 294//91 562//91
f 273//96 563//96 295//96
f 295//96 303//96 273//96
f 272//84 273//84 303//84
f 303//84 302//84 272//84
f 564//91 274//91 304//91
f 304//91 296//91 565//91
f 275//97 566//97 297//97
f 297//98 305//98 275//98
f 567//91 276//91 306//91
f 306//91 298//91 568//91
f 277//96 569//96 299//96
f 299//96 307//96 277//96
f 276//84 277//84 307//84
f 307//84 306//84 276//84
f 570//91 278//91 308//91
f 308//91 300//91 571//91
f 301//99 572//99 573//99
f 310//91 304//91 274//91
f 574//100 575//100 576//100
f 577//101 310//101 578//101
f 305//102 579//102 580//102
f 312//91 308//91 278//91
f 581//103 582//103 583//103
f 584//104 312//104 585//104
f 586//84 587//84 313//84
f 313//84 314//84 588//84
f 589//84 590//84 315//84
f 315//84 316//84 591//84
f 592//84 593//84 317//84
f 317//84 318//84 594//84
f 595//84 596//84 319//84
f 319//84 320//84 597//84
f 281//91 598//91 320//91
f 320//91 321//91 281//91
f 599//96 282//96 322//96
f 322//96 319//96 600//96
f 283//91 601//91 318//91
f 318//91 323//91 283//91
f 282//84 283//84 323//84
f 323//84 322//84 282//84
f 602//105 284//105 324//105
f 324//105 317//105 603//105
f 285//91 604//91 316//91
f 316//91 325//91 285//91
f 605//96 286//96 326//96
f 326//96 315//96 606//96
f 287//91 607//91 314//91
f 314//91 327//91 287//91
f 286//84 287//84 327//84
f 327//84 326//84 286//84
f 608//106 288//106 328//106
f 328//107 313//107 609//107
f 291//91 281//91 321//91
f 321//91 329//91 291//91
f 610//108 291//108 329//108
f 329//108 611//108 612//108
f 292//91 285//91 325//91
f 325//91 330//91 292//91
f 613//109 292//109 330//109
f 330//110 614//110 615//110
f 332//111 350//111 349//111
f 332//111 349//111 348//111
f 332//111 348//111 347//111
f 332//111 347//111 334//111
f 352//112 353//112 357//112
f 357//113 356//113 352//113
f 361//114 360//114 364//114
f 364//114 365//114 361//114
f 358//115 366//115 616//115
f 617//116 618//116 358//116
f 619//117 620//117 621//117
f 622//118 623//118 624//118
f 625//119 626//119 363//119
f 363//120 355//120 627//120
f 336//121 359//121 628//121
f 629//122 340//122 336//122
f 338//96 361//96 365//96
f 365//96 341//96 338//96
f 344//91 352//91 356//91
f 356//91 630//91 344//91
f 346//123 354//123 631//123
f 632//124 633//124 346//124
f 343//125 351//125 352//125
f 352//87 344//87 343//87
f 345//126 353//126 354//126
f 354//127 346//127 345//127
f 634//128 351//128 343//128
f 343//129 635//129 636//129
f 357//96 353//96 345//96
f 345//96 637//96 357//96
f 335//108 360//108 359//108
f 359//130 336//130 335//130
f 337//131 362//131 361//131
f 361//87 338//87 337//87
f 364//91 360//91 335//91
f 335//91 339//91 364//91
f 362//132 337//132 342//132
f 342//133 638//133 362//133
f 639//134 640//134 641//134
f 642//134 643//134 644//134
f 645//135 646//135 647//135
f 648//136 649//136 331//136
f 331//137 650//137 651//137
f 652//135 653//135 654//135
f 655//135 656//135 657//135
f 658//135 659//135 660//135
f 661//138 662//138 333//138
f 333//139 663//139 664//139
f 333//140 665//140 666//140
f 667//140 668//140 331//140
f 669//140 670//140 331//140
f 333//140 671//140 331//140
f 332//141 672//141 673//141
f 674//142 350//142 332//142
f 334//143 347//143 675//143
f 676//144 677//144 334//144
f 678//145 679//145 680//145
f 681//145 682//145 683//145
f 349//146 684//146 685//146
f 686//146 348//146 349//146
f 687//145 688//145 689//145
f 690//145 691//145 692//145
f 693//147 694//147 695//147
f 696//148 697//148 698//148
f 699//149 700//149 701//149
f 702//150 703//150 704//150
f 373//151 367//151 705//151
f 706//151 707//151 373//151
f 369//152 370//152 334//152
f 334//152 708//152 369//152
f 339//153 340//153 709//153
f 710//154 711//154 339//154
f 342//155 341//155 712//155
f 713//156 714//156 342//156
f 715//157 716//157 717//157
f 718//158 372//158 719//158
f 720//159 721//159 722//159
f 723//160 724//160 725//160
f 726//161 727//161 374//161
f 374//162 728//162 729//162
f 371//163 730//163 731//163
f 732//164 733//164 371//164
f 734//165 368//165 735//165
f 736//166 737//166 738//166
f 739//167 740//167 741//167
f 742//168 743//168 744//168
f 745//169 746//169 747//169
f 748//170 749//170 750//170
f 751//171 752//171 753//171
f 358//172 374//172 754//172
f 755//87 756//87 268//87
f 757//87 268//87 379//87
f 758//87 379//87 377//87
f 759//87 377//87 267//87
f 381//91 760//91 384//91
f 384//91 385//91 381//91
f 382//91 383//91 386//91
f 386//91 761//91 382//91
f 418//91 419//91 378//91
f 417//91 418//91 378//91
f 417//91 378//91 290//91
f 416//91 417//91 290//91
f 415//91 416//91 290//91
f 414//91 415//91 290//91
f 413//91 414//91 290//91
f 413//91 290//91 762//91
f 412//91 413//91 763//91
f 411//91 412//91 764//91
f 410//91 411//91 765//91
f 410//91 766//91 767//91
f 409//91 410//91 768//91
f 378//91 419//91 408//91
f 769//91 378//91 408//91
f 409//91 770//91 408//91
f 771//91 407//91 396//91
f 406//91 407//91 772//91
f 405//91 406//91 773//91
f 405//91 774//91 380//91
f 404//91 405//91 380//91
f 403//91 404//91 380//91
f 402//91 403//91 380//91
f 401//91 402//91 380//91
f 401//91 380//91 775//91
f 400//91 401//91 776//91
f 399//91 400//91 777//91
f 398//91 399//91 778//91
f 398//91 779//91 780//91
f 397//91 398//91 781//91
f 396//91 397//91 782//91
f 783//91 396//91 784//91
f 386//91 384//91 785//91
f 786//91 787//91 386//91
f 788//151 332//151 331//151
f 331//151 789//151 790//151
f 331//151 791//151 367//151
f 367//151 792//151 331//151
f 373//151 793//151 332//151
f 332//151 794//151 373//151
f 795//152 796//152 333//152
f 333//152 797//152 798//152
f 333//152 334//152 370//152
f 370//152 799//152 333//152
f 800//152 369//152 801//152
f 802//152 803//152 804//152
f 805//173 393//173 388//173
f 388//96 390//96 806//96
f 394//96 393//96 807//96
f 395//96 394//96 808//96
f 392//96 395//96 809//96
f 392//96 810//96 811//96
f 812//96 390//96 389//96
f 389//96 813//96 814//96
f 815//96 389//96 387//96
f 387//96 816//96 817//96
f 387//96 388//96 818//96
f 393//96 391//96 388//96
f 391//96 392//96 819//96
f 820//96 821//96 388//96
f 391//96 822//96 388//96
f 423//87 422//87 446//87
f 446//87 447//87 423//87
f 422//174 421//174 445//174
f 445//174 446//174 422//174
f 424//175 423//175 447//175
f 447//175 448//175 424//175
f 421//176 420//176 444//176
f 444//176 445//176 421//176
f 420//177 431//177 455//177
f 455//177 444//177 420//177
f 431//178 430//178 454//178
f 454//178 455//178 431//178
f 430//84 429//84 453//84
f 453//84 454//84 430//84
f 429//179 428//179 452//179
f 452//179 453//179 429//179
f 428//179 427//179 451//179
f 451//179 452//179 428//179
f 427//180 426//180 450//180
f 450//180 451//180 427//180
f 425//175 424//175 448//175
f 448//175 449//175 425//175
f 426//181 425//181 449//181
f 449//181 450//181 426//181
f 435//87 434//87 458//87
f 458//87 459//87 435//87
f 434//174 433//174 457//174
f 457//174 458//174 434//174
f 436//175 435//175 459//175
f 459//175 460//175 436//175
f 433//176 432//176 456//176
f 456//176 457//176 433//176
f 432//177 443//177 467//177
f 467//177 456//177 432//177
f 443//178 442//178 466//178
f 466//178 467//178 443//178
f 442//84 441//84 465//84
f 465//84 466//84 442//84
f 441//179 440//179 464//179
f 464//179 465//179 441//179
f 440//179 439//179 463//179
f 463//179 464//179 440//179
f 439//180 438//180 462//180
f 462//180 463//180 439//180
f 437//175 436//175 460//175
f 460//175 461//175 437//175
f 438//181 437//181 461//181
f 461//181 462//181 438//181
o Grill01_Grill01.001
v -2.796435 7.836898 1.303788
v 1.623481 7.836898 1.303788
v -2.789128 7.836898 2.879419
v 1.623481 7.836898 2.887644
v -2.796435 7.925604 1.303788
v 1.623481 7.925604 1.303788
v -2.789128 7.925604 2.879419
v 1.623481 7.925604 2.887644
vn 0.000000 1.000000 0.000000
vn 0.000000 0.000000 -1.000000
vn 1.000000 0.000000 0.000000
vn -1.000000 0.000000 0.004600
vn -0.001900 0.000000 1.000000
s off
f 830//182 828//182 829//182
f 828//182 827//182 829//182
f 824//183 823//183 827//183
f 827//183 828//183 824//183
f 826//184 824//184 828//184
f 828//184 830//184 826//184
f 823//185 825//185 829//185
f 823//185 829//185 827//185
f 825//186 826//186 830//186
f 830//186 829//186 825//186
o Rear_bumbe_Rear_bumbe.001
v -5.611134 -9.461221 -0.640301
v 4.601032 -9.461221 -0.640301
v -5.611134 -9.461221 1.114915
v 4.601032 -9.461221 1.114915
v -5.611134 -9.656075 -0.640301
v 4.601032 -9.656075 -0.640301
v -5.611134 -9.656075 1.114915
v 4.601032 -9.656075 1.114915
vn 0.000000 -1.000000 0.000000
vn 0.000000 0.000000 -1.000000
vn 0.000000 0.000000 1.000000
vn -1.000000 0.000000 0.000000
vn 1.000000 0.000000 0.000000
s off
f 838//187 837//187 835//187
f 835//187 836//187 838//187
f 831//188 832//188 836//188
f 831//188 836//188 835//188
f 834//189 833//189 837//189
f 837//189 838//189 834//189
f 833//190 831//190 835//190
f 835//190 837//190 833//190
f 832//191 834//191 838//191
f 838//191 836//191 832//191
o Front_bump_Front_bump.001
v -5.611134 7.836898 -0.640301
v 4.601032 7.836898 -0.640301
v 4.601032 7.836898 1.114915
v -5.611134 7.836898 1.114915
v -5.611134 8.072373 -0.640301
v 4.601032 8.072373 -0.640301
v 4.601032 8.072373 1.114915
v -5.611134 8.072373 1.114915
vn 0.000000 1.000000 0.000000
vn 0.000000 0.000000 -1.000000
vn 1.000000 0.000000 0.000000
vn 0.000000 0.000000 1.000000
vn -1.000000 0.000000 0.000000
s off
f 846//192 845//192 844//192
f 844//192 843//192 846//192
f 840//193 839//193 843//193
f 843//193 844//193 840//193
f 841//194 840//194 844//194
f 844//194 845//194 841//194
f 842//195 841//195 845//195
f 845//195 846//195 842//195
f 839//196 842//196 846//196
f 839//196 846//196 843//196
